<?xml version="1.0" encoding="utf-8"?>
<!-- Generator: Adobe Illustrator 15.0.0, SVG Export Plug-In . SVG Version: 6.00 Build 0)  -->
<!DOCTYPE svg PUBLIC "-//W3C//DTD SVG 1.1//EN" "http://www.w3.org/Graphics/SVG/1.1/DTD/svg11.dtd">
<svg version="1.1" id="Calque_1" xmlns="http://www.w3.org/2000/svg" xmlns:xlink="http://www.w3.org/1999/xlink" x="0px" y="0px"
	 width="595.279px" height="841.89px" viewBox="0 0 595.279 841.89" enable-background="new 0 0 595.279 841.89"
	 xml:space="preserve">
<g>
	<g transform="translate(0.000000,511.000000) scale(0.100000,-0.100000)">
		<path d="M5854.763,1032.939c-131.201,877.505-136.494,895.244-315.557,1161.152c-118.76,175.605-616.895,663.086-796.016,780.117
			c-315.498,203.882-673.613,345.674-1173.535,469.795c-563.789,138.281-900.605,170.19-1233.896,115.244
			c-72.686-10.654-156.016-31.904-186.143-44.346c-28.398-12.383-92.207-23.037-138.281-26.611
			c-62.021-3.569-102.803-17.739-150.664-56.729c-35.488-28.335-132.988-74.473-216.26-102.808
			c-452.07-150.664-744.58-327.939-1030.029-624.028c-253.525-264.126-411.279-538.911-505.215-882.861
			c-46.074-166.621-49.648-200.313-49.648-540.693c0-312.046,5.313-390.034,38.994-549.565
			c86.855-398.887,154.238-533.613,413.066-835c77.979-92.148,238.74-198.73,284.814-266.055l548.33-364.951
			c2.646,10.215,5.322,20.459,7.896,30.84c10.122,40.869,18.247,85.166-7.031,122.451c-16.968,25.02-38.872,45.713-61.348,66.006
			L656.394-144.448c-106.377,127.617-252.978,271.484-286.66,322.93C162.332,502.895,70.125,1268.73,180.007,1745.61
			c85.127,366.987,285.439,714.453,572.607,990.962c427.227,413.066,951.973,624.033,1857.871,749.873
			c69.219,8.989,193.291-1.665,498.252-42.441c136.494-19.526,296.025-33.691,354.551-33.691c69.17,0,179.053-21.255,320.85-62.031
			c418.369-120.542,719.756-258.828,982.158-446.758c198.525-143.579,671.885-639.985,671.885-705.586
			c0-15.952,26.611-69.111,60.303-117.031c33.633-47.861,88.643-173.701,124.121-278.354
			c60.244-179.058,63.809-205.61,63.809-413.062c0-262.402-26.602-565.513-63.809-726.841
			c-33.691-150.664-175.488-437.891-294.307-593.848c-134.717-180.84-547.783-586.836-726.836-714.453
			c-342.109-246.445-785.352-414.863-1210.801-464.512c-246.445-26.602-620.459-23.027-682.549,8.887
			c-28.398,14.16-53.154,19.512-56.738,10.645c-3.516-8.867-205.566-47.773-334.98-31.816l-0.117,0.068
			c-23.477-7.598-48.188-12.656-71.084-19.258c-33.296-9.6-70.903-27.129-104.614-48.252c-1.431-2.598-2.754-5.264-4.243-7.813
			c-8.066-13.828-19.302-27.402-30.469-41.279l200.527-133.467c36.255-25.439,268.672-92.187,451.309-111.719
			c565.508-63.809,1233.896-17.734,1634.511,111.68c317.344,102.793,835,450.273,1113.301,749.863
			C5842.321-264.78,5962.927,307.837,5854.763,1032.939z M2982.829,3506.03l-141.787,24.824l115.244-8.867
			c63.809-5.298,143.574-15.957,177.275-24.824C3232.849,3474.125,3138.855,3479.423,2982.829,3506.03z M2440.417-1367.358
			c-19.531-21.25-21.25,39.004-5.303,156.035c7.09,51.426,21.26,81.543,35.479,81.543c14.102,0,24.766-7.07,24.766-17.734
			C2495.359-1188.296,2454.587-1353.179,2440.417-1367.358z M2642.448-1213.12c-14.17-88.633-51.436-182.558-74.473-182.558
			c-24.824,0-24.824,46.074,1.787,157.734c14.16,67.402,28.33,90.43,51.426,90.43
			C2647.8-1147.515,2651.325-1158.159,2642.448-1213.12z M2841.032-1221.987c-37.207-184.355-40.781-191.445-109.893-191.445
			c-56.729,0-62.031,3.574-51.436,40.781c7.09,21.25,15.957,76.191,23.037,124.121l10.664,83.34h69.17
			C2851.697-1165.249,2853.415-1165.249,2841.032-1221.987z M2961.57-1431.167c-65.596,0-77.979,5.293-70.898,31.914
			c5.313,15.957,19.531,72.676,30.127,124.121c21.25,88.633,23.037,92.207,81.563,92.207c60.303,0,60.303,0,60.303-83.34
			C3062.663-1415.21,3052.009-1431.167,2961.57-1431.167z M3286.013-1211.323c-5.361-15.957-10.664-74.414-10.664-132.93v-104.59
			h-72.676c-72.686,0-72.686,0-62.031,54.941c5.293,30.117,10.654,90.43,10.654,132.93v78.047h72.686
			C3282.439-1182.925,3294.88-1188.296,3286.013-1211.323z M5799.821,944.36c10.654-113.457,10.654-113.457-15.957-54.941
			c-14.17,31.904-26.611,95.718-26.611,141.792C5759.04,1144.673,5785.593,1089.731,5799.821,944.36z M5677.487,554.399
			c7.08,10.645,14.17,17.734,15.957,14.16c3.506-3.574,30.117-53.223,62.021-111.68c54.951-101.074,54.951-102.793,10.664-53.145
			C5691.657,488.794,5665.046,533.149,5677.487,554.399z M3449.06-1301.753c-5.303-136.504-5.303-138.281-53.164-143.574
			l-49.58-5.371v131.211c0,70.898,5.293,136.504,12.373,141.797c5.361,7.09,30.127,12.383,53.164,12.383
			C3452.624-1165.249,3454.411-1168.765,3449.06-1301.753z M3559.001-1431.108c-31.904,0-35.479,12.383-35.479,141.797
			s3.516,141.797,35.479,141.797c31.914,0,35.479-12.383,35.479-141.797S3590.915-1431.108,3559.001-1431.108z M3776.999-1418.784
			c-46.074-5.352-86.855-7.09-86.855-7.09c-1.787,1.797-5.293,70.898-8.867,152.461c-7.09,147.148-7.09,150.664,37.266,163.105
			c97.5,26.602,101.074,23.105,113.457-102.813c5.303-67.383,15.957-136.484,21.25-157.793
			C3862.116-1404.624,3855.036-1409.917,3776.999-1418.784z M4174.167-1351.343c-1.787-1.777-51.436-12.383-108.164-24.824
			c-125.84-23.027-127.627-21.25-143.584,131.211c-17.734,161.309-10.654,187.93,62.031,214.473
			c33.691,12.441,67.324,23.047,74.473,23.047c7.08,1.777,37.207-76.27,67.383-170.195
			C4154.646-1271.577,4177.741-1349.604,4174.167-1351.343z M4174.167-964.878c12.441,21.25,40.781,14.16,40.781-8.867
			c0-12.441,5.293-54.941,8.867-93.945l10.654-70.898l-33.691,79.766C4183.034-1014.468,4170.651-973.745,4174.167-964.878z
			 M4259.235-1324.78c-5.361-8.867-24.824-17.754-40.781-15.957c-24.824,0-23.037,3.574,5.361,15.957
			C4271.677-1305.269,4271.677-1305.269,4259.235-1324.78z M4395.788-1285.796c-65.596-23.047-69.17-12.383-85.068,218.047
			c-12.441,157.754-10.654,161.328,30.127,180.859c23.037,10.645,47.861,21.25,53.154,21.25
			c5.303,1.777,15.957-72.695,21.25-161.328c7.09-90.43,15.957-182.578,21.318-202.09
			C4445.437-1259.194,4438.356-1269.839,4395.788-1285.796z M4606.696-1191.87c-40.771-17.734-77.979-26.602-85.127-21.25
			c-5.293,7.09-14.16,95.723-19.463,198.535c-5.303,134.707-1.787,193.223,14.17,212.754
			c35.479,42.559,58.516,23.027,101.074-81.563c21.309-53.145,44.287-136.484,49.648-186.133l12.383-88.633L4606.696-1191.87z
			 M4840.7-1048.218c-35.479-24.824-69.111-42.559-72.686-38.984c-3.506,3.555-17.734,56.719-31.904,115.234
			c-12.441,60.313-40.771,140.078-60.303,177.285l-33.691,69.16l74.473,62.031c40.771,33.691,76.25,60.293,79.766,56.738
			c3.633-1.855,19.58-76.27,39.053-164.902c17.734-86.855,40.771-175.488,51.426-195.02
			C4904.577-1000.366,4899.216-1009.233,4840.7-1048.218z M5033.991-913.511l-47.861-38.984l-23.037,54.941
			c-12.383,30.117-37.207,125.898-54.941,210.957c-30.127,143.594-30.127,159.551-3.516,186.152
			c17.734,17.734,30.117,19.473,33.633,8.867c3.516-10.645,38.994-101.074,76.191-200.312l69.18-180.84L5033.991-913.511z
			 M5227.214-773.433c-54.941-40.781-81.553-47.871-63.809-19.473c5.293,8.867-12.441,90.43-42.568,180.84
			c-70.889,225.137-72.676,249.961-19.463,306.699l44.346,47.852l12.383-77.969c7.031-42.637,30.127-140.137,51.377-218.125
			c21.25-77.969,46.074-150.664,54.941-163.105C5275.075-729.155,5262.634-748.608,5227.214-773.433z M5397.409-628.14
			l-60.303-62.012l-40.771,148.926c-51.436,186.152-65.605,340.391-35.488,395.332c28.398,53.223,53.223,40.781,53.223-24.824
			c0-58.516,51.436-212.754,106.377-319.121l38.994-77.988L5397.409-628.14z M5526.765-464.956
			c-35.479-21.27-136.504,258.828-145.371,409.492c-1.787,30.117,10.654,72.676,31.914,99.277
			c33.691,47.871,33.691,47.871,49.639,8.887c8.936-21.328,42.568-97.52,74.473-166.68c35.479-79.766,69.17-129.414,86.855-129.414
			c14.16,0,26.602-5.313,26.602-12.383C5650.876-278.823,5546.286-452.573,5526.765-464.956z M5730.71-59.038
			c-46.074-152.461-53.164-152.461-122.334-7.09c-77.979,161.328-92.148,232.227-63.818,303.125l23.047,53.145l58.516-83.34
			c33.633-46.016,60.234-90.293,60.234-97.441c0-8.867,15.957-30.117,35.479-47.852C5755.524,29.595,5755.524,24.243,5730.71-59.038
			z M5803.327,253.013c-5.352-28.398-15.947-77.988-21.25-108.164l-10.654-54.961l-86.855,129.414
			c-46.133,70.898-81.553,134.727-77.979,140.078c5.303,7.09,15.957,35.469,26.611,62.031l17.734,47.852l63.818-81.543
			c33.633-44.297,70.84-81.562,79.707-81.562C5805.114,306.157,5808.63,284.849,5803.327,253.013z M5812.204,448.013
			c-8.877,0-37.207,37.207-63.818,81.563c-38.994,67.383-44.346,92.207-35.479,154.238c17.744,106.367,24.824,109.883,72.686,38.984
			c33.691-49.648,42.559-86.914,42.559-168.398C5828.151,495.884,5821.071,448.013,5812.204,448.013z"/>
		<path d="M2353.493-1116.06c0-87.891,0-175.791,0-263.682"/>
	</g>
</g>
<path d="M34.139,533.945"/>
<path d="M240.97,687.237c-1.831-7.292-7.515-24.124-18.331-45.042l-11.595-7.666c-0.691,0.857-1.39,1.726-2.032,2.615
	c-0.017,0.099-0.029,0.196-0.051,0.297c-0.229,1.025-0.443,2.053-0.631,3.078c1.563,4.275,4.192,8.619,5.332,11.849
	c0.511,1.45,0.988,2.909,1.446,4.373c1.505,2.439,3.016,4.875,4.55,7.295c4.868,7.677,8.995,15.026,12.514,23.392
	c2.251,5.353,4.337,11.218,3.973,17.113c0.04,0.693,0.045,1.375,0.03,2.049c0.629,1.661,1.022,3.437,0.822,5.2
	c-0.107,0.946-0.319,1.793-0.624,2.562c0.256,0.954,0.424,1.937,0.33,2.937c-0.162,1.725-0.796,3.245-1.757,4.526
	c-0.012,0.021-0.02,0.042-0.032,0.063c-2.636,4.654-9.964,5.497-14.52,3.576c-0.478-0.202-0.951-0.437-1.418-0.69
	c-0.628,0.075-1.265,0.037-1.832-0.163c-0.712-0.252-1.332-0.524-1.915-0.863c-0.991-0.026-1.957-0.344-2.755-0.958h-0.001
	c-1.845,0-3.159-0.82-3.949-1.988c-4.047-0.682-6.007-1.437-10.135-3.346c-1.687-1.303-4.741-2.02-6.428-3.322
	c-1.017-0.816-1.964-1.694-2.873-2.607c-1.302-0.795-2.521-1.724-3.619-2.789c-3.693-1.541-6.805-4.48-9.7-7.163
	c-0.419-0.389-0.734-0.8-0.976-1.221c-0.15-0.128-0.307-0.249-0.449-0.386c-0.364-0.35-0.687-0.715-0.979-1.095
	c-1.522-0.984-2.73-1.817-3.501-2.404c-7.919-6.018-15.962-11.981-22.658-19.392c-5.995-6.635-11.341-13.808-16.504-21.101
	c-5.343-7.546-9.254-13.915-8.099-23.426c-2.234-7.869,0.359-15.527,3.296-23.134c-0.003-0.07-0.011-0.141-0.011-0.211
	c0-1.063,0.328-2.017,0.88-2.802c1.102-4.904,2.386-9.918,4.626-14.406c0.675-1.353,1.413-2.666,2.184-3.96
	c0.314-1.347,0.659-2.689,1.01-4.042l-16.701-11.04c-9.896,40.833-4.287,74.5,4.25,88c1.129,1.574,2.837,3.928,5.091,6.827
	c0.558-0.426,1.357-0.617,2.122-0.563c0.821-0.101,1.687,0.07,2.18,0.534c1.051,0.989,2.019,2.06,2.979,3.135
	c0.152,0.105,0.295,0.224,0.412,0.37c0.195,0.245,0.382,0.483,0.568,0.722c1.002,1.11,2.031,2.191,3.162,3.17
	c1.137,0.258,2.083,1.06,1.772,2.303c-0.354,1.419-0.89,2.789-1.466,4.154c2.687,2.909,5.652,5.963,8.909,9.089
	c2.652-0.435,5.193-0.095,7.17,1.544c0.04,0.033,0.068,0.066,0.106,0.1c1.127,0.52,2.203,1.195,3.194,1.957
	c1.962,1.507,0.238,3.087-2.174,3.94c0.556,0.478,1.117,0.956,1.686,1.434c2.154-1.35,6.182-1.654,7.839-0.721
	c0.021,0.002,0.04,0.001,0.061,0.003c1.234,0.137,4.596,1.644,4.916,3.293c0.716,0.776,0.254,1.917-0.851,2.831
	c-0.01,0.164-0.049,0.338-0.145,0.529c-0.396,0.79-0.797,1.581-1.2,2.373c4.52,3.284,9.34,6.481,14.471,9.493
	c0.285,0.149,0.561,0.308,0.825,0.477c14.324,8.301,30.979,15.15,49.873,18.506C251.764,732.945,243.889,692.695,240.97,687.237z"/>
<path d="M201.139,726.445l-27.147-14.61l-5.255-4.393c-2.618,5.164-5.412,10.335-9.066,14.817c0,0.001-0.001,0.002-0.001,0.003
	c-0.158,0.643-0.685,1.194-1.412,1.637c-0.738,0.818-1.501,1.616-2.314,2.373c-1.604,1.494-9.919,4.081-9.334-0.311
	c0.138-1.031,0.495-1.954,0.967-2.818c-0.009-0.163-0.016-0.327,0.012-0.516c0.374-2.485,2.491-4.323,3.375-6.625
	c0.641-1.668,1.568-3.27,2.225-4.939c0.071-0.483,0.186-0.943,0.4-1.436c0.001-0.003,0.003-0.005,0.005-0.008
	c0.377-2.957,1.718-5.7,3.016-8.658c0.335-0.765,1.173-1.367,2.224-1.798l-1.637-1.368c-0.499,0.246-1.067,0.44-1.651,0.608
	c-0.684,1.305-2.197,2.175-3.673,2.918c-0.694,0.684-1.438,1.329-2.098,2.005c-2.894,2.965-6.059,5.652-10.201,6.581
	c-2.865,0.643-8.284,0.494-8.581-3.569c-0.249-3.403,1.305-5.996,3.615-8.372c2.858-2.939,8.715-6.795,13.966-7.377l-5.217-4.361
	l-4.299-4.863c-0.835,2-1.774,3.982-2.383,6.078c-1.035,3.563-2.833,6.785-4.125,10.25c-0.67,1.799-4.208,1.916-4.821,0
	c-0.068-0.213-0.126-0.424-0.179-0.634c-0.645-0.202-1.165-0.61-1.321-1.241c-2.169-8.734-0.201-17.977,0.286-26.748
	c0.04-0.726,0.488-1.231,1.095-1.534l-11.815-22.961c0,0-0.671,6.117,0,13.703c0.865,9.781,3.218,22.282,4.345,30.167
	c2,14,9,28,15,34s28,20,35,26.444s24,9.556,41,11.556s19.5-4,19.5-4l6.291-21.178L201.139,726.445z M183.627,747.158
	c-0.029,0-0.05-0.011-0.078-0.013c-0.238,1.281-1.038,2.679-1.922,2.679c-1.694,0-0.919-3.521,0.37-4.501
	c-0.094-1.408,0.883-3.59,1.988-3.59c0.475,0,0.752,0.281,0.882,0.702C186.499,742.792,185.192,747.158,183.627,747.158z
	 M188.319,731.504c-0.685,1.741-1.481,3.453-1.998,5.344c-0.648,2.369-3.134,3.24-5.708,3.45c-2.466,1.019-5.926,0.771-8.008,0.404
	c-1.669-0.294-5.855-1.466-7.915-3.464c-2.647-1.521-4.066-3.596-2.483-5.777c1.092-1.505,1.313-3.237,1.724-5.086
	c0.496-2.229,1.256-4.384,2.609-6.247c0.111-0.153,0.238-0.295,0.372-0.431c-0.47-3.598,5.799-4.13,8.113-4.13
	c3.564,0,9.914,1.526,11.423,5.381c0.704,0.45,1.314,0.978,1.809,1.572c0.876,0.896,1.43,1.992,1.397,3.327
	c-0.035,1.438-0.336,2.75-0.748,4.017C188.96,730.412,188.794,730.964,188.319,731.504z M204.192,748.809
	c0.159,5.509-14.631,7.48-14.772,2.605c-0.161-5.576,1.855-10.812,2-16.333c0.147-5.578,14.896-7.313,14.772-2.605
	C206.047,737.995,204.032,743.3,204.192,748.809z M224.337,750.929c-0.082,0.555-0.45,1.044-0.992,1.457
	c-1.772,2.558-9.906,3.172-9.403-0.425c0.573-4.099,0.918-8.175,0.94-12.314c0.004-0.782,0.449-1.451,1.144-1.993
	c1.967-2.62,9.388-3.174,9.371-0.41C225.37,741.831,225.008,746.392,224.337,750.929z"/>
</svg>
