{
	"users": [],
	"restos": [
		{
			"id": 1,
			"nom": "Macdo",
			"logoLink": "./img/logoMacdo.png"
		},
		{
			"id": 2,
			"nom": "Quick",
			"logoLink": "./img/logoQuick.png"
		}
	],
	"plateaux": [],
	"persos": [
		{
			"id": 1,
			"nom": "benji",
			"photoLink": "img/personnages/benji.png",
			"dialogue": [
				{
					"dialogue1": "",
					"dialogue2": ""
				}
			]
		},
		{
			"id": 2,
			"nom": "sue",
			"photoLink": "img/personnages/sue.png",
			"dialogue": [
				{
					"dialogue1": "",
					"dialogue2": ""
				}
			]
		}
	],
	"items": [
		{
			"id": 1,
			"nom": "BigMac",
			"type": 1,
			"glucideLent": 33.5,
			"glucideRapide": 8.5,
			"restoId": 1,
			"photoLink": "./img/items/bigmac.png"
		},
		{
			"id": 6,
			"nom": "Coca-Cola_25",
			"type": 3,
			"glucideLent": 0,
			"glucideRapide": 27,
			"restoId": 1,
			"photoLink": "./img/items/cocacola.png"
		},
		{
			"id": 7,
			"nom": "Coca-Cola_33",
			"type": 3,
			"glucideLent": 0,
			"glucideRapide": 37.5,
			"restoId": 1,
			"photoLink": "./img/items/cocacola.png"
		},
		{
			"id": 8,
			"nom": "Le_Grand_Premium_Poulet",
			"type": 1,
			"glucideLent": 43,
			"glucideRapide": 13,
			"restoId": 1,
			"photoLink": "./img/items/grandPoulet.png"
		},
		{
			"id": 9,
			"nom": "Ice_Tea_25",
			"type": 3,
			"glucideLent": 0,
			"glucideRapide": 17,
			"restoId": 1,
			"photoLink": "./img/items/tea25.png"
		},
		{
			"id": 10,
			"nom": "La Petite Salade",
			"type": 2,
			"glucideLent": 1,
			"glucideRapide": 1,
			"restoId": 1,
			"photoLink": "./img/items/salade.png"
		},
		{
			"id": 11,
			"nom": "Cheeseburger",
			"type": 1,
			"glucideLent": 20.2,
			"glucideRapide": 7.8,
			"restoId": 2,
			"photoLink": "./img/items/cheeseburger.png"
		},
		{
			"id": 12,
			"nom": "Coca-Cola_35",
			"type": 3,
			"glucideLent": 0,
			"glucideRapide": 37.5,
			"restoId": 2,
			"photoLink": "./img/items/cocacola.png"
		},
		{
			"id": 13,
			"nom": "La Petite Salade",
			"type": 2,
			"glucideLent": 1.2,
			"glucideRapide": 0.2,
			"restoId": 2,
			"photoLink": "./img/items/saladeQuick.png"
		},
		{
			"id": 14,
			"nom": "Fishburger",
			"type": 1,
			"glucideLent": 28.4,
			"glucideRapide": 5,
			"restoId": 2,
			"photoLink": "./img/items/fish.png"
		},
		{
			"id": 15,
			"nom": "Le Supreme Chicken Barbecue Bacon",
			"type": 1,
			"glucideLent": 67.8,
			"glucideRapide": 8.2,
			"restoId": 2,
			"photoLink": "./img/items/supreme.png"
		},
		{
			"id": 16,
			"nom": "Nestea_35",
			"type": 3,
			"glucideLent": 0,
			"glucideRapide": 15.8,
			"restoId": 2,
			"photoLink": "./img/items/quickBoisson.png"
		},
		{
			"id": 17,
			"nom": "Eau_35",
			"type": 3,
			"glucideLent": 0,
			"glucideRapide": 0,
			"restoId": 2,
			"photoLink": "./img/items/eau.png"
		},
		{
			"id": 18,
			"nom": "Funny Tomate",
			"type": 2,
			"glucideLent": 0.9,
			"glucideRapide": 1.6,
			"restoId": 2,
			"photoLink": "./img/items/funnyTomate.png"
		},
		{
			"id": 19,
			"nom": "Fanta_35",
			"type": 3,
			"glucideLent": 0,
			"glucideRapide": 33.6,
			"restoId": 2,
			"photoLink": "./img/items/quickBoisson.png"
		},
		{
			"id": 20,
			"nom": "Long Barbecue",
			"type": 1,
			"glucideLent": 30.8,
			"glucideRapide": 16,
			"restoId": 2,
			"photoLink": "./img/items/longBarbecue.png"
		}
	],
	"usersIdMax": 6,
	"pateauxIdMax": 0
}
